Landsat Scene Identifier,Sensor Mode,Station Identifier,Day/Night,WRS Path,WRS Row,Date Acquired,Start Time,Stop Time,Image Quality VCID 1,Image Quality VCID 2,Cloud Cover,Cloud Cover Quad Upper Left,Cloud Cover Quad Upper Right,Cloud Cover Quad Lower Left,Cloud Cover Quad Lower Right,Sun Elevation,Sun Azimuth,Scene Center Latitude,Scene Center Longitude,Corner Upper Left Latitude,Corner Upper Left Longitude,Corner Upper Right Latitude,Corner Upper Right Longitude,Corner Lower Left Latitude,Corner Lower Left Longitude,Corner Lower Right Latitude,Corner Lower Right Longitude,Full Aperture Calibration,Gain Band 1,Gain Band 2,Gain Band 3,Gain Band 4,Gain Band 5,Gain Band 6 VCID 1,Gain Band 6 VCID 2,Gain Band 7,Gain Band 8,Browse Exists,Data Category,Gap Phase Source,Gap Phase Statistic,Gain Change Band 1,Gain Change Band 2,Gain Change Band 3,Gain Change Band 4,Gain Change Band 5,Gain Change Band 6 VCID 1,Gain Change Band 6 VCID 2,Gain Change Band 7,Gain Change Band 8,Data Type Level 1,Elevation Source,Output Format,Ephemeris Type,Corner UL Latitude Product,Corner UL Longitude Product,Corner UR Latitude Product,Corner UR Longitude Product,Corner LL Latitude Product,Corner LL Longitude Product,Corner LR Latitude Product,Corner LR Longitude Product,Panchromatic Lines,Panchromatic Samples,Reflective Lines,Reflective Samples,Thermal Lines,Thermal Samples,Date Acquired Gap Fill,Gap Fill,Ground Control Points Model,Geometric RMSE Model,Geometric RMSE Model X,Geometric RMSE Model Y,Map Projection L1,Datum,Ellipsoid,UTM Zone,Vertical Longitude from Pole,True Scale Latitude,False Easting,False Northing,Grid Cell Size Panchromatic,Grid Cell Size Reflective,Grid Cell Size Thermal,Orientation,Resampling Option,Scan Gap Interpolation,Scene Center Latitude dec,Scene Center Longitude dec,Corner Upper Left Lat dec,Corner Upper Left Long dec,Corner Upper Right Lat dec,Corner Upper Right Long dec,Corner Lower Left Lat dec,Corner Lower Left Long dec,Corner Lower Right Lat dec,Corner Lower Right Long dec,Display ID,Ordering ID,Download Link
LE07_L1TP_015033_20161014_20161109_01_T1
LE07_L1GT_015033_20160928_20161025_01_T2
LE07_L1TP_015033_20160912_20161008_01_T1
LE07_L1TP_015033_20160827_20161004_01_T1
LE07_L1TP_015033_20160811_20161005_01_T1
LE07_L1TP_015033_20160726_20160831_01_T1
LE07_L1TP_015033_20160710_20160901_01_T2
LE07_L1TP_015033_20160624_20160901_01_T1
LE07_L1TP_015033_20160523_20160901_01_T1
LE07_L1GT_015033_20160507_20160901_01_T2
LE07_L1TP_015033_20160421_20160901_01_T1
LE07_L1TP_015033_20160405_20160902_01_T1
LE07_L1GT_015033_20160320_20160903_01_T2
LE07_L1GT_015033_20160304_20160902_01_T2
LE07_L1TP_015033_20160217_20160902_01_T1
LE07_L1TP_015033_20160201_20160903_01_T1
LE07_L1TP_015033_20160116_20160902_01_T1
